2016-06-10 11:46:37,189 INFO  [DefaultSoapUICore] initialized soapui-settings from [C:\Users\Sniper\soapui-settings.xml]
2016-06-10 11:46:42,116 INFO  [SchemaUtils] Added default schema from file:/C:/Users/Sniper/Documents/utah_proto_v2/Dependencies/soapui-5.0.0.jar!/com/eviware/soapui/resources/xsds/xop.xsd with targetNamespace http://www.w3.org/2004/08/xop/include
2016-06-10 11:46:42,210 INFO  [SchemaUtils] Added default schema from file:/C:/Users/Sniper/Documents/utah_proto_v2/Dependencies/soapui-5.0.0.jar!/com/eviware/soapui/resources/xsds/XMLSchema.xsd with targetNamespace http://www.w3.org/2001/XMLSchema
2016-06-10 11:46:42,210 INFO  [SchemaUtils] Added default schema from file:/C:/Users/Sniper/Documents/utah_proto_v2/Dependencies/soapui-5.0.0.jar!/com/eviware/soapui/resources/xsds/xml.xsd with targetNamespace http://www.w3.org/XML/1998/namespace
2016-06-10 11:46:42,210 INFO  [SchemaUtils] Added default schema from file:/C:/Users/Sniper/Documents/utah_proto_v2/Dependencies/soapui-5.0.0.jar!/com/eviware/soapui/resources/xsds/swaref.xsd with targetNamespace http://ws-i.org/profiles/basic/1.1/xsd
2016-06-10 11:46:42,210 INFO  [SchemaUtils] Added default schema from file:/C:/Users/Sniper/Documents/utah_proto_v2/Dependencies/soapui-5.0.0.jar!/com/eviware/soapui/resources/xsds/xmime200505.xsd with targetNamespace http://www.w3.org/2005/05/xmlmime
2016-06-10 11:46:42,210 INFO  [SchemaUtils] Added default schema from file:/C:/Users/Sniper/Documents/utah_proto_v2/Dependencies/soapui-5.0.0.jar!/com/eviware/soapui/resources/xsds/xmime200411.xsd with targetNamespace http://www.w3.org/2004/11/xmlmime
2016-06-10 11:46:42,225 INFO  [SchemaUtils] Added default schema from file:/C:/Users/Sniper/Documents/utah_proto_v2/Dependencies/soapui-5.0.0.jar!/com/eviware/soapui/resources/xsds/soapEnvelope.xsd with targetNamespace http://schemas.xmlsoap.org/soap/envelope/
2016-06-10 11:46:42,225 INFO  [SchemaUtils] Added default schema from file:/C:/Users/Sniper/Documents/utah_proto_v2/Dependencies/soapui-5.0.0.jar!/com/eviware/soapui/resources/xsds/soapEncoding.xsd with targetNamespace http://schemas.xmlsoap.org/soap/encoding/
2016-06-10 11:46:42,225 INFO  [SchemaUtils] Added default schema from file:/C:/Users/Sniper/Documents/utah_proto_v2/Dependencies/soapui-5.0.0.jar!/com/eviware/soapui/resources/xsds/soapEnvelope12.xsd with targetNamespace http://www.w3.org/2003/05/soap-envelope
2016-06-10 11:46:42,225 INFO  [SchemaUtils] Added default schema from file:/C:/Users/Sniper/Documents/utah_proto_v2/Dependencies/soapui-5.0.0.jar!/com/eviware/soapui/resources/xsds/soapEncoding12.xsd with targetNamespace http://www.w3.org/2003/05/soap-encoding
2016-06-10 11:46:44,976 INFO  [SchemaUtils] Loading schema types from [http://graphical.weather.gov/xml/SOAP_server/ndfdXMLserver.php?wsdl]
2016-06-10 11:46:44,976 INFO  [SchemaUtils] Getting schema http://graphical.weather.gov/xml/SOAP_server/ndfdXMLserver.php?wsdl
2016-06-10 11:46:45,366 INFO  [WsdlImporter] Finding importer for {http://graphical.weather.gov/xml/DWMLgen/wsdl/ndfdXML.wsdl}ndfdXMLBinding
2016-06-10 11:46:45,366 INFO  [WsdlImporter] Importing binding {http://graphical.weather.gov/xml/DWMLgen/wsdl/ndfdXML.wsdl}ndfdXMLBinding
2016-06-10 11:46:45,382 INFO  [Soap11HttpBindingImporter] importing endpoint http://graphical.weather.gov/xml/SOAP_server/ndfdXMLserver.php
2016-06-10 11:46:46,226 INFO  [Soap11HttpBindingImporter] importing operation CornerPoints
2016-06-10 11:46:46,241 INFO  [Soap11HttpBindingImporter] importing operation GmlLatLonList
2016-06-10 11:46:46,241 INFO  [Soap11HttpBindingImporter] importing operation GmlTimeSeries
2016-06-10 11:46:46,241 INFO  [Soap11HttpBindingImporter] importing operation LatLonListCityNames
2016-06-10 11:46:46,241 INFO  [Soap11HttpBindingImporter] importing operation LatLonListLine
2016-06-10 11:46:46,241 INFO  [Soap11HttpBindingImporter] importing operation LatLonListSquare
2016-06-10 11:46:46,241 INFO  [Soap11HttpBindingImporter] importing operation LatLonListSubgrid
2016-06-10 11:46:46,241 INFO  [Soap11HttpBindingImporter] importing operation LatLonListZipCode
2016-06-10 11:46:46,241 INFO  [Soap11HttpBindingImporter] importing operation NDFDgen
2016-06-10 11:46:46,241 INFO  [Soap11HttpBindingImporter] importing operation NDFDgenByDay
2016-06-10 11:46:46,241 INFO  [Soap11HttpBindingImporter] importing operation NDFDgenByDayLatLonList
2016-06-10 11:46:46,257 INFO  [Soap11HttpBindingImporter] importing operation NDFDgenLatLonList
